Division,WeightClassKg,Place,Name,Team,BodyweightKg,Best3SquatKg,Best3BenchKg,Best3DeadliftKg,TotalKg,Equipment,Event,Sex
Boys,51.71,1,Rigo Pena,Pharr Valley View,50.98,136.08,92.99,151.95,381.02,Single-ply,SBD,M
Boys,55.79,2,Homar Longoria,San Benito,51.94,136.08,65.77,136.08,337.93,Single-ply,SBD,M
Boys,51.71,3,Brandon Guzman,Weslaco East,49.44,102.06,56.7,115.67,274.42,Single-ply,SBD,M
Boys,51.71,DQ,Juan Torres,San Benito,51.66,,,,,Single-ply,SBD,M
Boys,55.79,1,Anibal Martinez,Los Fresnos,55.43,213.19,106.59,222.26,542.04,Single-ply,SBD,M
Boys,55.79,2,Rudy Garay,Los Fresnos,54.16,183.7,111.13,183.7,478.54,Single-ply,SBD,M
Boys,55.79,3,Alex Solis,Weslaco East,55.52,165.56,106.59,167.83,439.98,Single-ply,SBD,M
Boys,55.79,4,Dylan Lindley,Mission Sharyland,54.75,136.08,63.5,145.15,344.73,Single-ply,SBD,M
Boys,59.87,1,Nick Laznovsky,Los Fresnos,59.19,249.48,122.47,226.8,598.74,Single-ply,SBD,M
Boys,59.87,2,Rolie Alaniz,Weslaco East,59.51,206.38,99.79,210.92,517.1,Single-ply,SBD,M
Boys,59.87,3,Lucky Carrasco,Pharr Valley View,59.51,165.56,90.72,176.9,433.18,Single-ply,SBD,M
Boys,59.87,4,Gilbert Flores,Pharr Valley View,59.69,151.95,97.52,167.83,417.3,Single-ply,SBD,M
Boys,59.87,5,Robert de la Cerda,Mercedes,57.65,163.29,86.18,158.76,408.23,Single-ply,SBD,M
Boys,67.13,6,Joe Bazaldua,Mercedes,59.92,149.69,79.38,161.03,390.09,Single-ply,SBD,M
Boys,59.87,DQ,Armando Perez,Pharr Valley View,59.65,151.95,,,,Single-ply,SBD,M
Boys,59.87,DQ,Roy Rodriguez,Weslaco,58.06,106.59,,,,Single-ply,SBD,M
Boys,67.13,DQ,Julian Morales,Weslaco,59.96,127.01,,,,Single-ply,SBD,M
Boys,67.13,1,Isaac Nunez,Los Fresnos,63.5,258.55,163.29,213.19,635.03,Single-ply,SBD,M
Boys,67.13,2,Miguel Mata,Pharr Valley View,66.81,215.46,151.95,210.92,578.33,Single-ply,SBD,M
Boys,74.84,3,Steven Flores,Pharr Valley View,67.22,183.7,102.06,192.78,478.54,Single-ply,SBD,M
Boys,67.13,4,Jose Cuellar,Pharr Valley View,66.04,174.63,92.99,165.56,433.18,Single-ply,SBD,M
Boys,67.13,5,Jacob Garcia,Mercedes,61.33,156.49,92.99,156.49,405.97,Single-ply,SBD,M
Boys,67.13,6,Ernie Sandell,San Benito,64.95,151.95,83.91,158.76,394.63,Single-ply,SBD,M
Boys,67.13,7,Miguel Silva,Donna,66.5,163.29,83.91,142.88,390.09,Single-ply,SBD,M
Boys,67.13,DQ,Miguel Pena,Pharr Valley View,67.13,,,,,Single-ply,SBD,M
Boys,67.13,DQ,Leonel Anciso,Weslaco,65.54,136.08,,,,Single-ply,SBD,M
Boys,74.84,1,Jaime Cortez,Mission Sharyland,74.8,249.48,142.88,249.48,641.83,Single-ply,SBD,M
Boys,74.84,2,Armando Hernandez,Los Fresnos,74.84,215.46,161.03,210.92,587.4,Single-ply,SBD,M
Boys,74.84,3,Aaron Mungia,Weslaco East,74.84,226.8,127.01,226.8,580.6,Single-ply,SBD,M
Boys,74.84,4,Joe Gonzalez,Pharr Valley View,71.89,192.78,113.4,210.92,517.1,Single-ply,SBD,M
Boys,74.84,5,Gus Sanchez,Los Fresnos,73.75,190.51,131.54,190.51,512.56,Single-ply,SBD,M
Boys,74.84,6,Joe Garza,Mercedes,74.34,192.78,108.86,204.12,505.76,Single-ply,SBD,M
Boys,74.84,7,Ublado Candanoza,Weslaco East,74.3,183.7,102.06,206.38,492.15,Single-ply,SBD,M
Boys,74.84,8,John Cantrell,Mercedes,69.67,158.76,102.06,161.03,421.84,Single-ply,SBD,M
Boys,74.84,9,Rene Torres,San Benito,70.62,165.56,74.84,167.83,408.23,Single-ply,SBD,M
Boys,74.84,10,Faustino Garces,Weslaco,74.71,145.15,90.72,158.76,394.63,Single-ply,SBD,M
Boys,82.1,1,Erik Ramirez,Donna,81.78,285.76,145.15,229.06,659.98,Single-ply,SBD,M
Boys,82.1,2,Trey Villarreal,San Benito,81.74,235.87,145.15,195.04,576.06,Single-ply,SBD,M
Boys,82.1,3,Efrain Alvarez,Weslaco East,81.83,210.92,120.2,215.46,546.58,Single-ply,SBD,M
Boys,82.1,4,Malcom Garza,Mercedes,79.88,215.46,129.27,192.78,537.51,Single-ply,SBD,M
Boys,82.1,5,Bryan Guzman,Weslaco East,81.37,201.85,117.93,217.72,537.51,Single-ply,SBD,M
Boys,82.1,6,Danny Cruz,Donna,76.61,213.19,113.4,190.51,517.1,Single-ply,SBD,M
Boys,82.1,7,Benjamin Medina,San Benito,81.47,183.7,124.74,188.24,496.68,Single-ply,SBD,M
Boys,82.1,8,Colton Hamilton,Pharr Valley View,79.7,183.7,102.06,199.58,485.34,Single-ply,SBD,M
Boys,89.81,9,Matt Galvan,San Benito,82.24,188.24,102.06,176.9,467.2,Single-ply,SBD,M
Boys,82.1,10,Ernesto Tafolla,Weslaco,80.1,163.29,104.33,192.78,460.4,Single-ply,SBD,M
Boys,82.1,11,Miguel Galvan,Pharr Valley View,81.6,174.63,102.06,170.1,446.79,Single-ply,SBD,M
Boys,82.1,12,Jonathan Balderas,Mission,75.75,145.15,65.77,106.59,317.51,Single-ply,SBD,M
Boys,89.81,1,Joseph Garcia,Weslaco East,89.36,226.8,147.42,226.8,601.01,Single-ply,SBD,M
Boys,89.81,2,Aaron Barron,San Benito,87.95,210.92,124.74,199.58,535.24,Single-ply,SBD,M
Boys,89.81,3,Roger Banda,Pharr Valley View,84.78,204.12,97.52,201.85,503.49,Single-ply,SBD,M
Boys,89.81,4,Ivan Garcia,Pharr Valley View,82.78,183.7,124.74,183.7,492.15,Single-ply,SBD,M
Boys,89.81,5,Derek Villegas,Mission,85.09,158.76,104.33,181.44,444.52,Single-ply,SBD,M
Boys,89.81,6,John Arevalo,Weslaco East,83.64,151.95,92.99,183.7,428.64,Single-ply,SBD,M
Boys,109.77,1,Ivan Arrevalo,Pharr Valley View,99.88,249.48,147.42,260.82,657.71,Single-ply,SBD,M
Boys,99.79,2,Aaron Garcia,Los Fresnos,97.07,244.94,156.49,197.31,598.74,Single-ply,SBD,M
Boys,99.79,3,Ivan Gonzalez,Los Fresnos,91.08,240.4,140.61,215.46,596.47,Single-ply,SBD,M
Boys,99.79,4,Jose Barrios,Weslaco East,98.79,235.87,113.4,215.46,564.72,Single-ply,SBD,M
Boys,99.79,5,Mauricio Verdin,Weslaco,96.75,226.8,120.2,206.38,553.38,Single-ply,SBD,M
Boys,99.79,6,Ryan Flores,Weslaco,95.57,204.12,136.08,204.12,544.31,Single-ply,SBD,M
Boys,99.79,7,William Relko,Mission,94.08,226.8,122.47,158.76,508.02,Single-ply,SBD,M
Boys,99.79,8,Victor Argullar,Mercedes,96.62,192.78,115.67,181.44,489.88,Single-ply,SBD,M
Boys,99.79,9,Steve Scott,Mission Sharyland,99.79,181.44,117.93,190.51,489.88,Single-ply,SBD,M
Boys,99.79,10,Robbie Garcia,Mercedes,95.16,165.56,106.59,156.49,428.64,Single-ply,SBD,M
Boys,109.77,1,Sergio Guevara,Donna,105.14,249.48,140.61,219.99,610.08,Single-ply,SBD,M
Boys,109.77,2,Marcelo Campos,Mercedes,109.18,242.67,136.08,226.8,605.55,Single-ply,SBD,M
Boys,109.77,3,Larry Cardenas,Weslaco,102.01,249.48,140.61,210.92,601.01,Single-ply,SBD,M
Boys,109.77,4,Sam Salazar,Weslaco East,107.77,240.4,124.74,213.19,578.33,Single-ply,SBD,M
Boys,109.77,5,Robert Garcia,Mission Sharyland,109.41,206.38,122.47,190.51,519.36,Single-ply,SBD,M
Boys,109.77,6,Diego Almazo,Mission Sharyland,105.51,204.12,102.06,188.24,494.42,Single-ply,SBD,M
Boys,109.77,7,Ruben Rubio,Mercedes,102.97,192.78,120.2,174.63,487.61,Single-ply,SBD,M
Boys,109.77,8,Sam Sanchez,Mercedes,101.42,195.04,106.59,170.1,471.74,Single-ply,SBD,M
Boys,124.74,1,Luis Castillo,Weslaco,124.74,272.16,149.69,208.65,630.49,Single-ply,SBD,M
Boys,124.74,2,Eliseo Pena,Weslaco,112.04,240.4,138.35,208.65,587.4,Single-ply,SBD,M
Boys,124.74,3,Julio Rivas,San Benito,122.65,199.58,124.74,185.97,510.29,Single-ply,SBD,M
Boys,124.74,4,Grant Garza,Mission Sharyland,114.94,204.12,102.06,190.51,496.68,Single-ply,SBD,M
Boys,124.74,DQ,Jose Cantu,Weslaco,111.49,,,,,Single-ply,SBD,M
Boys,124.74+,1,Jorge Mendez,Pharr Valley View,130.54,294.84,136.08,226.8,657.71,Single-ply,SBD,M
Boys,124.74+,DQ,Mando Salazar,Donna,126.96,,,,,Single-ply,SBD,M
