Place,Sex,Name,Event,Division,WeightClassKg,Equipment,BodyweightKg,Best3SquatKg,Best3BenchKg,Best3DeadliftKg,TotalKg,BirthYear
1,M,Aaron Poelaert,SBD,M-O,67.5,Single-ply,66.2,172.5,107.5,212.5,492.5,1991
1,M,Taylor Atwood,SBD,M-O,82.5,Single-ply,76.2,250,185,265,700,1988
2,M,Wade Kish,SBD,M-O,82.5,Single-ply,82.1,187.5,142.5,195,525,1970
1,M,Nick Gagnon,SBD,M-O,90,Single-ply,89.8,255,180,270,705,1987
2,M,Tony Schwebach,SBD,M-O,90,Single-ply,86.7,227.5,150,272.5,650,1990
3,M,Pat Beaumaster,SBD,M-O,90,Single-ply,86.2,240,147.5,250,637.5,1962
4,M,Travis Yasgar,SBD,M-O,90,Single-ply,90,220,132.5,222.5,575,1981
5,M,Jim Merchlewitz,SBD,M-O,90,Single-ply,89.4,192.5,170,192.5,555,1972
6,M,Jerry Shetka,SBD,M-O,90,Single-ply,88.3,172.5,95,260,527.5,1948
7,M,David Dellanave,SBD,M-O,90,Single-ply,85.7,182.5,100,215,497.5,1983
2,M,Jens Nestingen,SBD,M-O,100,Single-ply,99,220,150,295,665,1983
1,M,Nick Tylutki,SBD,M-O,110,Single-ply,101.6,285,177.5,315,777.5,1978
1,M,Steve Born,SBD,M-O,110,Single-ply,108.2,215,142.5,272.5,630,
1,M,Doug Staley,SBD,M-O,125+,Single-ply,154.8,275,177.5,277.5,730,1989
2,M,Kevin Kitzman,SBD,M-O,125+,Single-ply,135.7,232.5,140,257.5,630,1964
1,F,Stephanie Priebe,SBD,F-O,56,Single-ply,55.2,92.5,70,127.5,290,1987
1,F,Anna White,SBD,F-O,60,Single-ply,59.5,110,65,120,295,1987
2,F,Rachel Warphea,SBD,F-O,60,Single-ply,59.3,97.5,67.5,117.5,282.5,
3,F,Liz Stanley,SBD,F-O,60,Single-ply,59.9,80,55,115,250,1968
2,F,Jen Sinkler,SBD,F-O,67.5,Single-ply,67.2,140,72.5,165,377.5,1978
4,F,Jenn Halvorson,SBD,F-O,67.5,Single-ply,67.2,120,90,162.5,372.5,
6,F,Erin Zemanovic,SBD,F-O,67.5,Single-ply,65.9,85,60,117.5,262.5,1970
1,F,Sheri Stiles,SBD,F-O,75,Single-ply,70.9,135,82.5,172.5,390,1988
3,F,Carley Miller,SBD,F-O,75,Single-ply,72,152.5,62.5,160,375,1996
1,F,Alyson Allen,SBD,F-O,75,Single-ply,72.8,130,55,145,330,1981
5,F,Krista Rand,SBD,F-O,75,Single-ply,71.9,125,67.5,137.5,330,
4,F,Lenae Cartwright,SBD,F-O,75,Single-ply,73.4,95,75,120,290,1973
2,F,Morganna Moon,SBD,F-O,82.5,Single-ply,80.1,115,75,140,330,1984
3,F,Jennifer Blake,SBD,F-O,82.5,Single-ply,82.1,120,57.5,142.5,320,1977
2,F,Elizabeth Berg,SBD,F-O,90,Single-ply,87.7,117.5,72.5,145,335,1984
1,F,Samantha Nelson,SBD,F-O,90+,Single-ply,90.8,147.5,80,155,382.5,1988
3,F,Tracy Gabrelcik,SBD,F-O,90+,Single-ply,90.1,115,60,152.5,327.5,1983
