Place,Name,Division,BodyweightKg,Squat1Kg,Squat2Kg,Squat3Kg,Best3SquatKg,Bench1Kg,Bench2Kg,Bench3Kg,Best3BenchKg,Deadlift1Kg,Deadlift2Kg,Deadlift3Kg,Best3DeadliftKg,TotalKg,WeightClassKg,Sex,CyrillicName,BirthYear,Equipment,Tested,Event
1,Oksana Prikhodko,J,47.1,85,90,-95,90,55,60,62.5,62.5,100,105,,105,257.5,48,F,Оксана Приходько,1991,Wraps,Yes,SBD
1,Oksana Prikhodko,O,47.1,85,90,-95,90,55,60,62.5,62.5,100,105,,105,257.5,48,F,Оксана Приходько,1991,Wraps,Yes,SBD
1,Anna Yatsun,T2,51.5,60,72.5,80,80,45,-50,-50,45,70,80,87.5,87.5,212.5,52,F,Анна Яцун,1994,Wraps,Yes,SBD
2,Svitlana Vasylenko,T2,52,60,62.5,65,65,30,35,-37.5,35,85,90,95,95,195,52,F,Світлана Василенко,1994,Wraps,Yes,SBD
1,Anastasiya Solop,J,50,65,75,-85,75,35,40,-42.5,40,75,80,87.5,87.5,202.5,52,F,Анастасія Солоп,1991,Wraps,Yes,SBD
1,Kateryna Ivasenko,O,49,82.5,87.5,92.5,92.5,45,47.5,50,50,107.5,112.5,117.5,117.5,260,52,F,Катерина Івасенко,1986,Wraps,Yes,SBD
2,Viktoriya Zeruk,O,51.9,80,90,-100,90,-50,52.5,-55,52.5,100,105,107.5,107.5,250,52,F,Вікторія Зерук,1989,Wraps,Yes,SBD
3,Anastasiya Solop,O,50,65,75,-85,75,35,40,-42.5,40,75,80,87.5,87.5,202.5,52,F,Анастасія Солоп,1991,Wraps,Yes,SBD
4,Tetyana Dzvinchuk,O,51,50,60,65,65,30,-32.5,32.5,32.5,60,65,70,70,167.5,52,F,Тетяна Дзвінчук,1982,Wraps,Yes,SBD
1,Anastasiya Zatserklyana,T2,53,90,100,105,105,62.5,-67.5,-67.5,62.5,100,110,,110,277.5,56,F,Анастасія Зацеркляна,1995,Wraps,Yes,SBD
2,Mariya Kononova,T2,54.1,90,-95,95,95,-50,50,-52.5,50,90,95,100,100,245,56,F,Марія Кононова,1996,Wraps,Yes,SBD
1,Irina Gurska,J,83.5,80,-85,85,85,32.5,35,-37.5,35,75,80,85,85,205,90,F,Ірина Гурська,1992,Wraps,Yes,SBD
1,Ganna Brezhneva,O,54.5,100,105,110,110,50,55,57.5,57.5,120,135,140,140,307.5,56,F,Ганна Брежнєва,1987,Wraps,Yes,SBD
2,Katerina Starcheus,O,55.2,60,70,75,75,45,50,-52.5,50,85,95,105,105,230,56,F,Катерина Старчеус,1989,Wraps,Yes,SBD
3,Tetyana Muzichenko,O,55,60,-70,70,70,-35,-40,40,40,60,70,80,80,190,56,F,Тетяна Музиченко,1988,Wraps,Yes,SBD
1,Darya Stepanenko,J,57.5,-95,95,-105,95,50,55,-57.5,55,-90,-90,90,90,240,60,F,Дар'я Степаненко,1992,Wraps,Yes,SBD
1,Olena Petrik,O,58,70,80,-85,80,60,-65,-65,60,80,90,95,95,235,60,F,Олена Петрик,1985,Wraps,Yes,SBD
1,Anastasiya Borovova,J,65.3,80,90,-97.5,90,40,45,47.5,47.5,85,95,100,100,237.5,67.5,F,Анастасія Боровова,1991,Wraps,Yes,SBD
1,Valeriya Demchenko,O,61.4,65,75,80,80,32.5,35,-37.5,35,80,90,100,100,215,67.5,F,Валерія Демченко,1984,Wraps,Yes,SBD
1,Olga Demakova,O,74.7,90,100,-115,100,55,-60,-60,55,95,105,115,115,270,75,F,Ольга Демакова,1978,Wraps,Yes,SBD
DQ,Olena Tereschenko,O,75,-100,-110,-115,,-50,-60,-60,,-140,,,,,75,F,Олена Терещенко,1988,Wraps,Yes,SBD
1,Oleksandr Yaremchuk,T2,54,140,150,-160,150,85,-90,-90,85,120,150,165,165,400,56,M,Олександр Яремчук,1994,Wraps,Yes,SBD
1,Oleksandr Belyanovskyy,J,55.3,100,110,-115,110,90,95,-97.5,95,130,140,145,145,350,56,M,Олександр Беляновський,1993,Wraps,Yes,SBD
1,Oleksandr Yaremchuk,O,54,140,150,-160,150,85,-90,-90,85,120,150,165,165,400,56,M,Олександр Яремчук,1994,Wraps,Yes,SBD
1,Oleksandr Yakovlev,T1,60,80,90,-95,90,-70,-70,70,70,100,112.5,120,120,280,60,M,Олександр Яковлєв,1997,Wraps,Yes,SBD
1,Evgen Ivanov,T2,58.4,-110,120,130,130,70,75,80,80,140,-150,,140,350,60,M,Євген Іванов,1995,Wraps,Yes,SBD
1,Artem Kurochkin,J,59.9,105,112.5,-117.5,112.5,75,80,-85,80,160,170,-182.5,170,362.5,60,M,Артем Курочкін,1991,Wraps,Yes,SBD
1,Artem Kurochkin,O,59.9,105,112.5,-117.5,112.5,75,80,-85,80,160,170,-182.5,170,362.5,60,M,Артем Курочкін,1991,Wraps,Yes,SBD
1,Evgen Samoylenko,T2,65.1,155,160,-170,160,95,100,-102.5,100,165,170,175,175,435,67.5,M,Євген Самойленко,1995,Wraps,Yes,SBD
DQ,Dmitro Ligotskiy,J,62,-100,-100,-120,,-100,-100,-100,,-170,,,,,67.5,M,Дмитро Лигоцький,1994,Wraps,Yes,SBD
1,Mikola Karlov,O,67,170,-175,-175,170,70,75,80,80,160,170,180,180,430,67.5,M,Микола Карлов,1983,Wraps,Yes,SBD
1,Maksim Kharchenko,T1,72,-87.5,-90,90,90,55,57.5,60,60,100,110,115,115,265,75,M,Максим Харченко,1999,Wraps,Yes,SBD
1,Sergiy Yamchuk,T2,73.9,170,185,-200,185,100,-107.5,-107.5,100,220,-240,-240,220,505,75,M,Сергій Ямчук,1995,Wraps,Yes,SBD
2,Dmitro Sklyar,T2,75,160,170,175,175,110,120,-125,120,175,190,195,195,490,75,M,Дмитро Скляр,1994,Wraps,Yes,SBD
3,Vladyslav Muzyka,T2,74.9,140,150,-155,150,90,95,-100,95,195,205,215,215,460,75,M,Владислав Музика,1996,Wraps,Yes,SBD
1,Igor Suschenko,J,72.5,170,-180,-185,170,-130,130,-137.5,130,190,200,,200,500,75,M,Ігор Сущенко,1993,Wraps,Yes,SBD
2,Fedir Berezovskyy,J,74.5,150,160,170,170,-110,112.5,-115,112.5,160,177.5,190,190,472.5,75,M,Федір Березовський,1992,Wraps,Yes,SBD
1,Vitaliy Pasechnik,O,74.4,195,205,210,210,125,130,-135,130,210,220,247.5,247.5,587.5,75,M,Віталій Пасечник,1985,Wraps,Yes,SBD
2,Igor Suschenko,O,72.5,170,-180,-185,170,-130,130,-137.5,130,190,200,,200,500,75,M,Ігор Сущенко,1993,Wraps,Yes,SBD
3,Sergiy Martinenko,O,71.1,135,145,,145,105,110,-115,110,230,240,-245,240,495,75,M,Сергій Мартиненко,1989,Wraps,Yes,SBD
4,Grigoriy Khaylak,O,73.3,150,155,165,165,110,120,125,125,170,180,190,190,480,75,M,Григорій Хайлак,1988,Wraps,Yes,SBD
5,Yaroslav Panchenko,O,73,150,160,165,165,100,105,-110,105,170,180,185,185,455,75,M,Ярослав Панченко,1977,Wraps,Yes,SBD
6,Oleksandr Avakumov,O,74.5,-140,150,-165,150,105,107.5,112.5,112.5,-160,170,185,185,447.5,75,M,Олександр Авакумов,1983,Wraps,Yes,SBD
7,Maksim Yakimov,O,72.5,-130,130,-140,130,100,-107.5,-107.5,100,165,175,180,180,410,75,M,Максим Якімов,1981,Wraps,Yes,SBD
8,Andriy Ivzhenko,O,72.8,125,130,-135,130,-95,100,-105,100,150,155,-160,155,385,75,M,Андрій Івженко,1981,Wraps,Yes,SBD
9,Pavlo Vayda,O,74.6,100,110,120,120,80,85,90,90,110,120,130,130,340,75,M,Павло Вайда,1987,Wraps,Yes,SBD
1,Vladislav Kolomiets,T1,79.9,-100,100,-105,100,52.5,57.5,-62.5,57.5,122.5,-127.5,130,130,287.5,82.5,M,Владислав Коломієць,1998,Wraps,Yes,SBD
1,Taras Kravchenko,J,80,160,170,180,180,90,100,107.5,107.5,180,190,200,200,487.5,82.5,M,Тарас Кравченко,1994,Wraps,Yes,SBD
2,Oleksandr Chayka,J,82.5,125,-135,-140,125,100,105,110,110,170,180,185,185,420,82.5,M,Олександр Чайка,1993,Wraps,Yes,SBD
1,Volodimir Rudenko,O,80,180,190,-205,190,135,-140,-140,135,-220,220,245,245,570,82.5,M,Володимир Руденко,1986,Wraps,Yes,SBD
2,Vladislav Antonenko,O,79,-180,-190,190,190,120,130,-135,130,200,210,220,220,540,82.5,M,Владислав Антоненко,1982,Wraps,Yes,SBD
3,Vitaliy Omelchenko,O,79.9,130,140,145,145,100,105,-110,105,175,185,190,190,440,82.5,M,Віталій Омельченко,1983,Wraps,Yes,SBD
1,Yuriy Starkov,M6,75,120,130,135,135,90,100,-105,100,170,180,185,185,420,82.5,M,Юрій Старков,1947,Wraps,Yes,SBD
1,Vladyslav Polyvko,T1,87.8,170,180,190,190,120,130,135,135,180,190,200,200,525,90,M,Владислав Поливко,1998,Wraps,Yes,SBD
2,Oleksiy Serdyukov,T1,88.5,-100,115,125,125,95,100,105,105,-150,150,,150,380,90,M,Олексій Сердюков,1998,Wraps,Yes,SBD
1,Vladislav Mazur,T2,85.5,-130,135,-142.5,135,110,-112.5,-112.5,110,200,210,215,215,460,90,M,Владислав Мазур,1995,Wraps,Yes,SBD
2,Vadim Perev'yazko,T2,87.2,100,-110,-115,100,100,-105,-105,100,170,185,195,195,395,90,M,Вадим Перев'язко,1995,Wraps,Yes,SBD
1,Artem Shitiy,J,88.5,-240,-240,240,240,162.5,172.5,-177.5,172.5,235,250,-255,250,662.5,90,M,Артем Шитий,1992,Wraps,Yes,SBD
2,Vladyslav Babarykin,J,87,190,205,-215,205,135,-140,140,140,200,215,225,225,570,90,M,Владислав Бабарикін,1992,Wraps,Yes,SBD
3,Mikola Yarovenko,J,89.2,145,160,175,175,-100,100,-110,100,160,175,185,185,460,90,M,Микола Яровенко,1990,Wraps,Yes,SBD
4,Dmitro Antonenko,J,86.5,110,130,140,140,107.5,115,-117.5,115,110,135,145,145,400,90,M,Дмитро Антоненко,1991,Wraps,Yes,SBD
1,Artem Shitiy,O,88.5,-240,-240,240,240,162.5,172.5,-177.5,172.5,235,250,-255,250,662.5,90,M,Артем Шитий,1992,Wraps,Yes,SBD
2,Vitaliy Sukovatyy,O,86,180,200,-220,200,130,140,150,150,220,240,260,260,610,90,M,Віталій Суковатий,1986,Wraps,Yes,SBD
3,Viktor Rublyov,O,89,-200,200,210,210,140,150,-155,150,220,230,-235,230,590,90,M,Віктор Рубльов,1975,Wraps,Yes,SBD
4,Mikola Yarovenko,O,89.2,145,160,175,175,-100,100,-110,100,160,175,185,185,460,90,M,Микола Яровенко,1990,Wraps,Yes,SBD
1,Viktor Shulyak,M2,84,170,180,190,190,135,140,142.5,142.5,200,210,215,215,547.5,90,M,Віктор Шуляк,1965,Wraps,Yes,SBD
1,Levan Mosidze,T2,98.5,-190,195,205,205,130,135,-140,135,190,200,210,210,550,100,M,Леван Мосідзе,1995,Wraps,Yes,SBD
1,Artem Kolokolov,J,94.5,215,225,230,230,140,145,150,150,240,245,250,250,630,100,M,Артем Колоколов,1991,Wraps,Yes,SBD
2,Vadim Prikhodko,J,93.6,180,190,200,200,155,160,165,165,210,220,230,230,595,100,M,Вадим Приходько,1990,Wraps,Yes,SBD
DQ,Yuriy Dzhavun,J,93.5,-210,-210,-210,,,,,,,,,,,100,M,Юрій Джавун,1993,Wraps,Yes,SBD
1,Sergiy Rudoy,O,95.7,225,235,-240,235,130,140,145,145,230,245,-250,245,625,100,M,Сергій Рудой,1986,Wraps,Yes,SBD
DD,Oleksandr Chernish,O,99,250,260,270,270,170,180,185,185,260,270,280,280,,100,M,Олександр Черниш,1988,Wraps,Yes,SBD
1,Andriy Gerbut,M3,90.9,80,-120,-130,80,80,-90,-90,80,120,-150,150,150,310,100,M,Андрій Гербут,1964,Wraps,Yes,SBD
1,Viktor Stefanov,M6,102.3,140,145,160,160,-100,-100,100,100,130,150,160,160,420,110,M,Віктор Стефанов,1948,Wraps,Yes,SBD
1,Kostyantin But,M1,118.7,-175,175,185,185,135,140,142.5,142.5,215,225,235,235,562.5,125,M,Костянтин Бут,1971,Wraps,Yes,SBD
1,Tetyana Khomyak,O,75,75,85,95,95,47.5,52.5,57.5,57.5,80,100,112.5,112.5,265,75,F,Тетяна Хомяк,1979,Wraps,No,SBD
1,Denys Yermakov,J,66,-180,185,-192.5,185,110,115,120,120,160,170,-180,170,475,67.5,M,Денис Єрмаков,1997,Wraps,No,SBD
1,Mykola Bilozerov,O,67.5,185,-195,195,195,110,115,-117.5,115,215,-232.5,-232.5,215,525,67.5,M,Николай Белозеров,1982,Wraps,No,SBD
1,Viktor Petrenko,J,74,170,185,-190,185,115,120,-127.5,120,-170,-180,180,180,485,75,M,Віктор Петренко,1992,Wraps,No,SBD
2,Pavlo Kyrychenko,J,73.85,-110,-110,110,110,110,117.5,120,120,160,180,200,200,430,75,M,Павло Кириченко,1983,Wraps,No,SBD
1,Viktor Petrenko,O,74,170,185,-190,185,115,120,-127.5,120,-170,-180,180,180,485,75,M,Віктор Петренко,1992,Wraps,No,SBD
2,Ihor Hamarnik,O,71,120,130,140,140,100,105,-110,105,190,200,-210,200,445,75,M,Ігор Гамарник,1988,Wraps,No,SBD
1,Artur Dubinin,O,81.8,190,205,210,210,130,135,-140,135,220,230,,230,575,82.5,M,Артур Дубінін,1987,Wraps,No,SBD
2,Sergiy Popov,O,81.1,115,125,135,135,100,105,110,110,150,160,167.5,167.5,412.5,82.5,M,Сергій Попов,1989,Wraps,No,SBD
1,Oleksiy Gerasymenko,J,87.5,-200,230,250,250,-120,-120,120,120,260,272.5,280,280,650,90,M,Олексій Герасименко,1994,Wraps,No,SBD
2,Valentyn Gerasymchuk,J,86.4,120,130,,130,-80,80,-100,80,150,165,170,170,380,90,M,Валентин Герасимчук,1998,Wraps,No,SBD
1,Radion Shovkun,O,88,200,215,230,230,110,120,-130,120,210,240,260,260,610,90,M,Радіон Шовкун,1981,Wraps,No,SBD
2,Dmytro Volkov,O,89.1,120,140,165,165,130,140,-150,140,170,200,220,220,525,90,M,Дмитро Волков,1984,Wraps,No,SBD
1,Yevgen Yeremin,J,99.5,260,280,310,310,140,-150,160,160,280,300,-310,300,770,100,M,Євген Єрьомін,1993,Wraps,No,SBD
2,Artur Derkach,J,98.4,215,225,235,235,180,195,-200,195,240,250,255,255,685,100,M,Артур Деркач,1991,Wraps,No,SBD
3,Yevgen Nastenko,J,93.5,245,-255,-255,245,-160,170,-180,170,250,265,-275,265,680,100,M,Євген Настенко,1991,Wraps,No,SBD
4,Bogdan Volynets,J,98.5,-210,210,215,215,150,160,-165,160,300,-310,-310,300,675,100,M,Богдан Волинець,1992,Wraps,No,SBD
5,Artem Dmitruk,J,98.9,200,220,-240,220,170,180,185,185,250,-260,260,260,665,100,M,Артем Дмитрук,1993,Wraps,No,SBD
1,Mikhaylo Zhelyazkov,O,99.7,300,320,-330,320,180,185,-190,185,310,320,325,325,830,100,M,Михайло Желязков,1980,Wraps,No,SBD
2,Yevgen Yeremin,O,99.5,260,280,310,310,140,-150,160,160,280,300,-310,300,770,100,M,Євген Єрьомін,1993,Wraps,No,SBD
3,Oleksiy Matyuschenko,O,99.4,235,250,260,260,170,180,185,185,245,255,265,265,710,100,M,Олексій Матющенко,1986,Wraps,No,SBD
4,Artur Derkach,O,98.4,215,225,235,235,180,195,-200,195,240,250,255,255,685,100,M,Артур Деркач,1991,Wraps,No,SBD
5,Yevgen Nastenko,O,93.5,245,-255,-255,245,-160,170,-180,170,250,265,-275,265,680,100,M,Євген Настенко,1991,Wraps,No,SBD
6,Artem Dmitruk,O,98.9,200,220,-240,220,170,180,185,185,250,-260,260,260,665,100,M,Артем Дмитрук,1993,Wraps,No,SBD
7,Dmitro Demakov,O,99,190,-200,200,200,120,130,135,135,200,215,-227.5,215,550,100,M,Дмитро Демаков,1975,Wraps,No,SBD
1,Valeriy Lytovchenko,M6,92.7,165,175,185,185,92.5,100,105,105,190,200,210,210,500,100,M,Валерій Литовченко,1948,Wraps,No,SBD
1,Yuriy Khomenko,J,102.5,245,260,270,270,-135,135,-145,135,260,270,-275,270,675,110,M,Юрій Хоменко,1990,Wraps,No,SBD
2,Vadim Manzheliy,J,103.5,170,190,202.5,202.5,142.5,-145,145,145,250,272.5,-277.5,272.5,620,110,M,Вадим Манжелій,1995,Wraps,No,SBD
3,Vladislav Merezhko,J,109.8,170,180,195,195,165,170,172.5,172.5,190,210,225,225,592.5,110,M,Владислав Мережко,1996,Wraps,No,SBD
1,Yaroslav Trubichkin,O,105.5,330,-347.5,-347.5,330,180,195,200,200,270,285,300,300,830,110,M,Ярослав Трубічкін,1987,Wraps,No,SBD
2,Vitaliy Alekseev,O,105.5,260,280,300,300,175,190,-200,190,310,330,-342.5,330,820,110,M,Віталій Алексеєв,1988,Wraps,No,SBD
3,Volodymyr Rozhanskyy,O,109.5,250,265,275,275,180,187.5,192.5,192.5,275,290,300,300,767.5,110,M,Володимир Рожанський,1980,Wraps,No,SBD
4,Ivan Badyra,O,101,220,230,240,240,125,130,135,135,245,-255,-255,245,620,110,M,Іван Бадира,1984,Wraps,No,SBD
1,Valeriy Babko,M6,93,170,180,-200,180,-110,110,130,130,150,,,150,460,100,M,Валерій Бабко,1941,Multi-ply,Yes,SBD
1,Boris Povireniy,O,99.2,200,205,210,210,160,180,200,200,230,-240,240,240,650,100,M,Борис Повірений,1986,Multi-ply,No,SBD
1,Oleksandr Tenkulyak,O,102.4,200,220,235,235,150,160,-165,160,200,210,,210,605,110,M,Олександр Тенкуляк,1986,Multi-ply,No,SBD
1,Dmytro Voronin,O,121.6,265,275,300,300,-240,240,250,250,250,-277.5,-277.5,250,800,125,M,Дмитро Воронін,1980,Multi-ply,No,SBD
1,Irina Komarnitska,O,47.2,,,,,45,47.5,-50,47.5,,,,,47.5,48,F,Ірина Комарницька,1984,Raw,Yes,B
2,Olena Malashevich,O,46.1,,,,,42.5,-45,45,45,,,,,45,48,F,Олена Малашевич,1982,Raw,Yes,B
3,Gayane Tregub,O,46.1,,,,,30,35,40,40,,,,,40,48,F,Гаяне Трегуб,1984,Raw,Yes,B
1,Mariya Kononova,T2,54.1,,,,,-50,50,-52.5,50,,,,,50,56,F,Марія Кононова,1996,Raw,Yes,B
1,Svitlana Belikova,O,50.5,,,,,52.5,57.5,-60,57.5,,,,,57.5,52,F,Світлана Бєлікова,1974,Raw,Yes,B
2,Marina Uglenko,O,49.7,,,,,42.5,47.5,-50,47.5,,,,,47.5,52,F,Марина Угленко,1988,Raw,Yes,B
3,Zhanna Schurovska,O,51.6,,,,,45,-47.5,47.5,47.5,,,,,47.5,52,F,Жанна Щуровська,1985,Raw,Yes,B
1,Olena Budzinska,O,54.7,,,,,50,55,60,60,,,,,60,56,F,Олена Будзінська,1981,Raw,Yes,B
2,Katerina Starcheus,O,55.2,,,,,50,-52.5,-52.5,50,,,,,50,56,F,Катерина Старчеус,1989,Raw,Yes,B
3,Oksana Savinich,O,55.9,,,,,35,-40,-40,35,,,,,35,56,F,Оксана Савінич,1972,Raw,Yes,B
1,Lilia Nots,M1,55,,,,,50,55,60,60,,,,,60,56,F,Лілія Проць,1974,Raw,Yes,B
1,Ilona Maystruk,T1,59,,,,,37.5,40,42.5,42.5,,,,,42.5,60,F,Ілона Майструк,1998,Raw,Yes,B
1,Olga Vlasenko,T2,57.5,,,,,35,40,42.5,42.5,,,,,42.5,60,F,Ольга Власенко,1996,Raw,Yes,B
1,Lyubov Rudnytska,O,59,,,,,67.5,72.5,75,75,,,,,75,60,F,Любовь Рудницька,1975,Raw,Yes,B
2,Olena Petrik,O,58,,,,,60,-65,-65,60,,,,,60,60,F,Олена Петрик,1985,Raw,Yes,B
1,Viktoriya Rozhanska,O,64.9,,,,,42.5,47.5,50,50,,,,,50,67.5,F,Вікторія Рожанська,1978,Raw,Yes,B
1,Mariya Slinko,T1,79.3,,,,,47.5,50,57.5,57.5,,,,,57.5,82.5,F,Марія Слинько,1997,Raw,Yes,B
1,Adrian Kalmuk,T1,50.7,,,,,65,-70,-70,65,,,,,65,52,M,Адріан Кальмук,1999,Raw,Yes,B
1,Maxim Novychenko,J,37.7,,,,,85,92.5,-97.5,92.5,,,,,92.5,52,M,Максим Новыченко,1993,Raw,Yes,B
1,Yuriy Babenko,O,50.4,,,,,70,75,,75,,,,,75,52,M,Юрій Бабенко,1989,Raw,Yes,B
1,Evgen Kovalchuk,T2,52.5,,,,,60,-65,-67.5,60,,,,,60,56,M,Євген Ковальчук,1996,Raw,Yes,B
1,Oleksandr Belyanovskyy,J,55.3,,,,,90,95,-97.5,95,,,,,95,56,M,Олександр Беляновський,1993,Raw,Yes,B
1,Mykhaylo Pysachenko,O,54.4,,,,,-95,95,-97.5,95,,,,,95,56,M,Михайло Писаченко,1989,Raw,Yes,B
1,Vladislav Tkachenko,T1,60,,,,,97.5,105,-110,105,,,,,105,60,M,Владислав Ткаченко,1998,Raw,Yes,B
2,Maksim Omelyanchenko,T1,57.1,,,,,75,85,-97.5,85,,,,,85,60,M,Максим Омельянченко,1998,Raw,Yes,B
1,Yuriy Yevstratov,J,60,,,,,90,100,-110,100,,,,,100,60,M,Юрій Євстратов,1991,Raw,Yes,B
1,Vadim Melnik,O,58.8,,,,,130,137.5,142.5,142.5,,,,,142.5,60,M,Вадим Мельник,1987,Raw,Yes,B
1,Oleksandr Beznoschenko,T1,66,,,,,105,-107.5,107.5,107.5,,,,,107.5,67.5,M,Олександр Безнощенко,1998,Raw,Yes,B
2,Dmitro Panasenko,T1,60.5,,,,,80,85,-90,85,,,,,85,67.5,M,Дмитро Панасенко,1998,Raw,Yes,B
3,Vladislav Klimenko,T1,64.3,,,,,60,70,80,80,,,,,80,67.5,M,Владислав Клименко,1999,Raw,Yes,B
4,Arsen Petrusyak,T1,62.9,,,,,55,60,-67.5,60,,,,,60,67.5,M,Арсен Петрусяк,2000,Raw,Yes,B
1,Vadim Mordyuk,T2,66.4,,,,,110,115,-120,115,,,,,115,67.5,M,Вадим Мордюк,1995,Raw,Yes,B
2,Evgen Samoylenko,T2,65.1,,,,,95,100,-102.5,100,,,,,100,67.5,M,Євген Самойленко,1995,Raw,Yes,B
1,Oleksandr Kravchenko,J,67,,,,,130,-140,-140,130,,,,,130,67.5,M,Олександр Кравченко,1992,Raw,Yes,B
1,Valeriy Rud',O,65.2,,,,,125,132.5,-140,132.5,,,,,132.5,67.5,M,Валерій Рудь,1987,Raw,Yes,B
2,Oleksandr Stupar,O,61.5,,,,,90,-95,-95,90,,,,,90,67.5,M,Олександр Ступар,1990,Raw,Yes,B
1,Maksim Kharchenko,T1,72,,,,,55,57.5,60,60,,,,,60,75,M,Максим Харченко,1999,Raw,Yes,B
1,Andriy Maslyak,J,74.8,,,,,150,-152.5,152.5,152.5,,,,,152.5,75,M,Андрій Масляк,1990,Raw,Yes,B
2,Sergiy Medunitsya,J,71.5,,,,,130,135,140,140,,,,,140,75,M,Сергій Медуниця,1992,Raw,Yes,B
3,Sergiy Korobka,J,72.6,,,,,110,120,,120,,,,,120,75,M,Сергій Коробка,1992,Raw,Yes,B
4,Sergiy Perepelitsin,J,70.4,,,,,115,-120,-120,115,,,,,115,75,M,Сергій Перепелицин,1991,Raw,Yes,B
1,Oleksandr Ostrovskiy,O,74.5,,,,,135,142.5,147.5,147.5,,,,,147.5,75,M,Олександр Островський,1982,Raw,Yes,B
2,Igor Bondarchuk,O,71.8,,,,,145,-150,-150,145,,,,,145,75,M,Ігор Бондарчук,1989,Raw,Yes,B
3,Evgen Benedik,O,71.9,,,,,135,140,142.5,142.5,,,,,142.5,75,M,Євген Бенедик,1985,Raw,Yes,B
4,Oleg Litovchenko,O,73.2,,,,,130,140,-145,140,,,,,140,75,M,Олег Литовченко,1987,Raw,Yes,B
5,Andriy Konnov,O,72.2,,,,,120,125,130,130,,,,,130,75,M,Андрій Коннов,1978,Raw,Yes,B
6,Andriy Verenko,O,73.4,,,,,110,130,-132.5,130,,,,,130,75,M,Андрій Веренко,1978,Raw,Yes,B
7,Vitaliy Pasechnik,O,74.4,,,,,125,130,-135,130,,,,,130,75,M,Віталій Пасечник,1985,Raw,Yes,B
1,Oleksandr Ostrovskiy,M5,74,,,,,90,95,100,100,,,,,100,75,M,Олександр Островський,1953,Raw,Yes,B
1,Kyrylo Sharoyko,T1,78,,,,,90,100,105,105,,,,,105,82.5,M,Кирило Шаройко,1998,Raw,Yes,B
2,Oleksandr Orel,T1,80.5,,,,,95,100,-105,100,,,,,100,82.5,M,Олександр Орел,1998,Raw,Yes,B
3,Vladislav Kolomiets,T1,79.9,,,,,52.5,57.5,-62.5,57.5,,,,,57.5,82.5,M,Владислав Коломієць,1998,Raw,Yes,B
1,Oleksandr Kyrylenko,T2,80.9,,,,,150,160,-165,160,,,,,160,82.5,M,Олександр Кириленко,1994,Raw,Yes,B
2,Dmitro Kodenets,T2,78.5,,,,,137.5,145,-147.5,145,,,,,145,82.5,M,Дмитро Коденець,1995,Raw,Yes,B
3,Vitaliy Primachenko,T2,80.6,,,,,130,-137.5,137.5,137.5,,,,,137.5,82.5,M,Віталій Примаченко,1995,Raw,Yes,B
4,Andriy Yakubovskiy,T2,82,,,,,120,125,130,130,,,,,130,82.5,M,Андрій Якубовський,1995,Raw,Yes,B
1,Andriy Kosyak,J,82.4,,,,,145,150,-160,150,,,,,150,82.5,M,Андрій Косяк,1992,Raw,Yes,B
2,Mykhaylo Bochevar,J,80.65,,,,,115,125,130,130,,,,,130,82.5,M,Михайло Бочевар,1991,Raw,Yes,B
1,Oleksandr Kovalenko,O,79.9,,,,,170,175,180,180,,,,,180,82.5,M,Олександр Коваленко,1991,Raw,Yes,B
2,Artem Negoda,O,81.2,,,,,145,155,165,165,,,,,165,82.5,M,Артем Негода,1983,Raw,Yes,B
3,Oleksandr Kyrylenko,O,80.9,,,,,150,160,-165,160,,,,,160,82.5,M,Олександр Кириленко,1994,Raw,Yes,B
4,Volodymyr Lagoda,O,82.4,,,,,145,150,155,155,,,,,155,82.5,M,Володимир Лагода,1968,Raw,Yes,B
5,Oleksandr Romaschenko,O,79.9,,,,,140,145,152.5,152.5,,,,,152.5,82.5,M,Олександр Ромащенко,1989,Raw,Yes,B
6,Sergiy Zander,O,81.7,,,,,140,152.5,-160,152.5,,,,,152.5,82.5,M,Сергій Зандер,1977,Raw,Yes,B
7,Andriy Kosyak,O,82.4,,,,,145,150,-160,150,,,,,150,82.5,M,Андрій Косяк,1992,Raw,Yes,B
8,Vladislav Bilan,O,80.8,,,,,132.5,-137.5,-145,132.5,,,,,132.5,82.5,M,Владислав Білан,1989,Raw,Yes,B
DQ,Oleksiy Perebatinskiy,O,80.6,,,,,-145,-150,-150,,,,,,,82.5,M,Олексій Перебатинський,1989,Raw,Yes,B
DQ,Denis Merkulov,O,79,,,,,-125,-125,-125,,,,,,,82.5,M,Денис Меркулов,1987,Raw,Yes,B
1,Volodymyr Lagoda,M2,82.4,,,,,145,150,155,155,,,,,155,82.5,M,Володимир Лагода,1968,Raw,Yes,B
1,Vadim Levchenko,T1,90,,,,,130,132.5,137.5,137.5,,,,,137.5,90,M,Вадим Левченко,1998,Raw,Yes,B
3,Vladyslav Polyvko,T1,87.8,,,,,120,130,135,135,,,,,135,90,M,Владислав Поливко,1998,Raw,Yes,B
2,Oleksiy Serdyukov,T1,88.5,,,,,95,100,105,105,,,,,105,90,M,Олексій Сердюков,1998,Raw,Yes,B
1,Artem Shitiy,J,88.5,,,,,170,175,177.5,177.5,,,,,177.5,90,M,Артем Шитий,1992,Raw,Yes,B
2,Bogdan Scherban,J,87.9,,,,,145,-150,-150,145,,,,,145,90,M,Богдан Щербань,1990,Raw,Yes,B
3,Sergiy Berezhnoy,J,89.6,,,,,145,-155,-155,145,,,,,145,90,M,Сергій Бережной,1992,Raw,Yes,B
4,Vitaliy Visochin,J,89.9,,,,,140,145,-150,145,,,,,145,90,M,Віталій Височин,1991,Raw,Yes,B
5,Maksim Skiba,J,88.9,,,,,140,-150,-150,140,,,,,140,90,M,Максим Скиба,1990,Raw,Yes,B
1,Artem Shitiy,O,88.5,,,,,170,175,177.5,177.5,,,,,177.5,90,M,Артем Шитий,1992,Raw,Yes,B
2,Vitaliy Tsyupiy,O,87.5,,,,,160,165,-167.5,165,,,,,165,90,M,Віталій Цюпий,1989,Raw,Yes,B
3,Roman Yurkov,O,88.7,,,,,155,165,-170,165,,,,,165,90,M,Роман Юрков,1989,Raw,Yes,B
4,Roman Yanov,O,88.2,,,,,165,-172.5,-172.5,165,,,,,165,90,M,Роман Янов,1988,Raw,Yes,B
5,Dmitro Gerasimchuk,O,87.14,,,,,135,-145,145,145,,,,,145,90,M,Дмитро Герасимчук,1990,Raw,Yes,B
DQ,Andriy Talan,O,89,,,,,-120,-132.5,-132.5,,,,,,,90,M,Андрій Талан,1986,Raw,Yes,B
1,Andriy Polischuk,T2,93,,,,,130,140,-150,140,,,,,140,100,M,Андрій Поліщук,1996,Raw,Yes,B
2,Vadim Tischenko,T2,91.2,,,,,100,120,135,135,,,,,135,100,M,Вадим Тищенко,1996,Raw,Yes,B
1,Volodymyr Gaydamaka,J,98.7,,,,,162,-172.5,172.5,172.5,,,,,172.5,100,M,Володимир Гайдамака,1991,Raw,Yes,B
2,Vadim Prikhodko,J,93.6,,,,,155,160,165,165,,,,,165,100,M,Вадим Приходько,1990,Raw,Yes,B
1,Andriy Elenovskiy,O,97.5,,,,,195,200,-202.5,200,,,,,200,100,M,Андрій Єленовський,1976,Raw,Yes,B
2,Dmytro Lytvynenko,O,100,,,,,190,200,-202.5,200,,,,,200,100,M,Дмитро Литвиненко,1989,Raw,Yes,B
3,Vladislav Sotnichenko,O,99.2,,,,,195,-200,-200,195,,,,,195,100,M,Владислав Сотніченко,1985,Raw,Yes,B
4,Artem Bondar,O,99,,,,,155,165,175,175,,,,,175,100,M,Артем Бондар,1992,Raw,Yes,B
5,Andriy Nikolaenko,O,97,,,,,160,172.5,-185,172.5,,,,,172.5,100,M,Андрій Ніколаєнко,1988,Raw,Yes,B
6,Gor Kazaryan,O,95,,,,,165,-170,170,170,,,,,170,100,M,Гор Казарян,1982,Raw,Yes,B
7,Mikolay Matvienko,O,91.9,,,,,-155,-155,155,155,,,,,155,100,M,Миколай Матвієнко,1989,Raw,Yes,B
8,Sergiy Kalchenko,O,96.9,,,,,140,-145,145,145,,,,,145,100,M,Сергій Кальченко,1982,Raw,Yes,B
9,Oleksiy Dubrovniy,O,96.9,,,,,130,135,140,140,,,,,140,100,M,Олексій Дубровний,1983,Raw,Yes,B
1,Viktor Fedorenko,M1,99.5,,,,,165,175,180,180,,,,,180,100,M,Віктор Федоренко,1972,Raw,Yes,B
2,Valeriy Telyuk,M1,99,,,,,160,170,175,175,,,,,175,100,M,Валерій Телюк,1969,Raw,Yes,B
1,Sergiy Suslik,M2,97,,,,,132.5,-137.5,-137.5,132.5,,,,,132.5,100,M,Сергій Суслик,1966,Raw,Yes,B
1,Mykhaylo Kaplunenko,M5,97.1,,,,,95,-102.5,-105,95,,,,,95,100,M,Михайло Каплуненко,1950,Raw,Yes,B
1,Bogdan Melnichuk,T1,104.1,,,,,100,-115,-115,100,,,,,100,110,M,Богдан Мельничук,1997,Raw,Yes,B
1,Sergiy Pysarenko,T2,109.2,,,,,160,170,-172.5,170,,,,,170,110,M,Сергій Писаренко,1996,Raw,Yes,B
1,Oleg Chumak,J,109.8,,,,,160,175,185,185,,,,,185,110,M,Олег Чумак,1990,Raw,Yes,B
2,Oleksandr Nikiforyak,J,106.7,,,,,150,160,-165,160,,,,,160,110,M,Олександр Нікіфоряк,1992,Raw,Yes,B
1,Oleksiy Chukhnenko,O,108.1,,,,,177.5,182.5,185,185,,,,,185,110,M,Олексій Чухненко,1978,Raw,Yes,B
2,Sergiy Dromov,O,109.2,,,,,180,-190,-190,180,,,,,180,110,M,Сергій Дрьомов,1968,Raw,Yes,B
3,Igor Zaychuk,O,104,,,,,-160,-160,160,160,,,,,160,110,M,Ігор Зайчук,1989,Raw,Yes,B
4,Andriy Triskalo,O,104.3,,,,,145,-160,-160,145,,,,,145,110,M,Андрій Тріскало,1984,Raw,Yes,B
DQ,Vyacheslav Khomyakov,O,104.6,,,,,-165,-165,-165,,,,,,,110,M,Вячеслав Хомяков,1975,Raw,Yes,B
1,Sergiy Dromov,M2,109.2,,,,,180,-190,-190,180,,,,,180,110,M,Сергій Дрьомов,1968,Raw,Yes,B
1,Volodymyr Tkachenko,M3,108.9,,,,,132.5,-140,-140,132.5,,,,,132.5,110,M,Володимир Ткаченко,1959,Raw,Yes,B
1,Volodimir Lyashko,O,123,,,,,160,170,180,180,,,,,180,125,M,Володимир Ляшко,1990,Raw,Yes,B
2,Oleksandr Savokh,O,116.8,,,,,155,165,172.5,172.5,,,,,172.5,125,M,Олександр Савох,1987,Raw,Yes,B
1,Artem Ushenko,J,128.2,,,,,150,165,-170,165,,,,,165,140,M,Артем Ушенко,1992,Raw,Yes,B
1,Tetyana Khomyak,O,75,,,,,47.5,52.5,57.5,57.5,,,,,57.5,75,F,Тетяна Хомяк,1979,Raw,No,B
1,Pavlo Kyrychenko,J,73.85,,,,,110,117.5,120,120,,,,,120,75,M,Павло Кириченко,1983,Raw,No,B
2,Vitaliy Tytska,J,70.7,,,,,100,110,112.5,112.5,,,,,112.5,75,M,Віталій Тицька,1992,Raw,No,B
1,Akmal Yergashev,O,72.7,,,,,170,175,-180,175,,,,,175,75,M,Акмал Єргашев,1989,Raw,No,B
2,Dmitro Cherkay,O,73.7,,,,,155,-160,160,160,,,,,160,75,M,Дмитро Черкай,1985,Raw,No,B
3,Oleksandr Korshak,O,75,,,,,120,127.5,132.5,132.5,,,,,132.5,75,M,Олександр Коршак,1983,Raw,No,B
1,Oleksandr Melnichuk,O,81.9,,,,,150,157.5,162.5,162.5,,,,,162.5,82.5,M,Олександр Мельничук,1989,Raw,No,B
2,Sergiy Odarchenko,O,81.7,,,,,150,160,-165,160,,,,,160,82.5,M,Сергій Одарченко,1986,Raw,No,B
1,Pavlo Sheptytskyy,O,87.7,,,,,165,-172.5,172.5,172.5,,,,,172.5,90,M,Павло Шептицький,1988,Raw,No,B
2,Vyacheslav Zdorovenko,O,89.6,,,,,140,147.5,152.5,152.5,,,,,152.5,90,M,Вячеслав Здоровенко,1983,Raw,No,B
1,Artem Tkachenko,J,100,,,,,200,210,-215,210,,,,,210,100,M,Артем Ткаченко,1991,Raw,No,B
2,Sergiy Grechenko,J,91.3,,,,,150,160,167.5,167.5,,,,,167.5,100,M,Сергій Греченко,1990,Raw,No,B
1,Sergiy Samoylov,O,97.8,,,,,210,220,-225,220,,,,,220,100,M,Сергій Самойлов,1989,Raw,No,B
2,Artem Tkachenko,O,100,,,,,200,210,-215,210,,,,,210,100,M,Артем Ткаченко,1991,Raw,No,B
3,Pavlo Yamandi,O,99.8,,,,,190,200,-205,200,,,,,200,100,M,Павло Яманді,1980,Raw,No,B
4,Mykhaylo Strelenko,O,96.5,,,,,187.5,-195,-195,187.5,,,,,187.5,100,M,Михайло Стреленко,1989,Raw,No,B
5,Artem Dmitruk,O,98.9,,,,,170,180,185,185,,,,,185,100,M,Артем Дмитрук,1993,Raw,No,B
1,Oleksandr Sorochynskyy,M1,97.2,,,,,170,-175,-175,170,,,,,170,100,M,Олександр Сорочинський,1971,Raw,No,B
1,Igor Mamchenko,M3,97.5,,,,,-145,150,-160,150,,,,,150,100,M,Ігор Мамченко,1963,Raw,No,B
1,Valeriy Lytovchenko,M6,92.7,,,,,92.5,100,105,105,,,,,105,100,M,Валерій Литовченко,1948,Raw,No,B
1,Illya Kiktev,J,102.3,,,,,-210,220,-225,220,,,,,220,110,M,Ілля Кіктєв,1993,Raw,No,B
2,Oleksiy Stolyarenko,J,101.3,,,,,-190,190,-200,190,,,,,190,110,M,Олексій Столяренко,1994,Raw,No,B
3,Sergiy Tyulenev,J,103.5,,,,,160,170,180,180,,,,,180,110,M,Сергій Тюленєв,1991,Raw,No,B
4,Vadim Manzheliy,J,103.5,,,,,142.5,-145,145,145,,,,,145,110,M,Вадим Манжелій,1995,Raw,No,B
1,Sergiy Dragan,O,109.4,,,,,210,217.5,225,225,,,,,225,110,M,Сергій Драган,1981,Raw,No,B
2,Illya Kiktev,O,102.3,,,,,-210,220,-225,220,,,,,220,110,M,Ілля Кіктєв,1993,Raw,No,B
1,Ruslan Fursov,J,125,,,,,210,220,-232.5,220,,,,,220,125,M,Руслан Фурсов,1991,Raw,No,B
2,Kostyantin Limanskiy,J,114.2,,,,,160,180,-190,180,,,,,180,125,M,Костянтин Лиманський,1994,Raw,No,B
1,Oleksandr Shopik,O,125,,,,,215,230,-240,230,,,,,230,125,M,Олександр Шопік,1982,Raw,No,B
2,Ruslan Fursov,O,125,,,,,210,220,-232.5,220,,,,,220,125,M,Руслан Фурсов,1991,Raw,No,B
3,Dmytro Voronin,O,121.6,,,,,190,202.5,210,210,,,,,210,125,M,Дмитро Воронін,1980,Raw,No,B
DQ,Dmitro Gerasimenko,O,106.7,,,,,-210,-210,-210,,,,,,,125,M,Дмитро Герасименко,1989,Raw,No,B
1,David Tamozhniy,T1,66.5,,,,,110,-120,-120,110,,,,,110,67.5,M,Давид Таможний,1998,Multi-ply,Yes,B
1,Mykhailo Stasenko,J,65.6,,,,,125,132.5,140,140,,,,,140,67.5,M,Михайло Стасенко,1991,Multi-ply,Yes,B
1,Volodymyr Pinchuk,T1,74.2,,,,,90,-100,100,100,,,,,100,75,M,Володимир Пінчук,1999,Multi-ply,Yes,B
1,Viktor Rublyov,O,89,,,,,160,-170,170,170,,,,,170,90,M,Віктор Рубльов,1975,Multi-ply,Yes,B
1,Dmytro Lytvynenko,O,100,,,,,220,235,-250,235,,,,,235,100,M,Дмитро Литвиненко,1989,Multi-ply,Yes,B
2,Yuriy Muzychenko,O,93.9,,,,,145,-155,-155,145,,,,,145,100,M,Юрій Музиченко,1986,Multi-ply,Yes,B
1,Valeriy Telyuk,M1,99,,,,,-175,175,,175,,,,,175,100,M,Валерій Телюк,1969,Multi-ply,Yes,B
1,Oleksiy Andriyanov,O,103.6,,,,,220,230,240,240,,,,,240,110,M,Олексій Андріянов,1987,Multi-ply,Yes,B
1,Ivan Misyura,T1,131.2,,,,,110,120,130,130,,,,,130,140,M,Іван Місюра,1998,Multi-ply,Yes,B
1,Artur Borodavko,J,77.6,,,,,175,185,-190,185,,,,,185,82.5,M,Артур Бородавко,1992,Multi-ply,No,B
DQ,Igor Povazhnyuk,O,77.8,,,,,-180,-190,-200,,,,,,,82.5,M,Игорь Поважнюк,1974,Multi-ply,No,B
1,Dmytro Kharchenko,O,88.9,,,,,240,-250,-250,240,,,,,240,90,M,Дмитро Харченко,1991,Multi-ply,No,B
DQ,Kyrylo Ostapishin,O,87.2,,,,,-220,-220,-220,,,,,,,90,M,Кирило Остапішин,1985,Multi-ply,No,B
1,Boris Povireniy,O,99.2,,,,,160,180,200,200,,,,,200,100,M,Борис Повірений,1986,Multi-ply,No,B
1,Sergiy Ivanov,J,108.8,,,,,300,315,-325,315,,,,,315,110,M,Сергій Іванов,1990,Multi-ply,No,B
1,Andriy Prykhodko,O,107.6,,,,,245,255,262.5,262.5,,,,,262.5,110,M,Андрій Приходько,1981,Multi-ply,No,B
DQ,Viktor Mima,J,120.5,,,,,-280,-280,-280,,,,,,,140,M,Віктор Міма,1991,Multi-ply,No,B
1,Vitaliy Chorniy,O,118.4,,,,,300,-310,-315,300,,,,,300,140,M,Віталій Чорний,1984,Multi-ply,No,B
1,Oksana Prikhodko,J,47.1,,,,,,,,,100,105,,105,105,48,F,Оксана Приходько,1991,Raw,Yes,D
1,Svitlana Vasylenko,T2,52,,,,,,,,,85,90,95,95,95,52,F,Світлана Василенко,1994,Raw,Yes,D
1,Anastasiya Solop,J,50,,,,,,,,,75,80,87.5,87.5,87.5,52,F,Анастасія Солоп,1991,Raw,Yes,D
1,Kateryna Ivasenko,O,49,,,,,,,,,107.5,112.5,117.5,117.5,117.5,52,F,Катерина Івасенко,1986,Raw,Yes,D
2,Zhanna Schurovska,O,51.6,,,,,,,,,90,95,105,105,105,52,F,Жанна Щуровська,1985,Raw,Yes,D
1,Mariya Kononova,T2,54.1,,,,,,,,,90,95,100,100,100,56,F,Марія Кононова,1996,Raw,Yes,D
1,Ganna Brezhneva,O,54.2,,,,,,,,,120,135,140,140,140,56,F,Ганна Брежнєва,1987,Raw,Yes,D
2,Olga Bloschanevich,O,55.3,,,,,,,,,120,125,-130,125,125,56,F,Ольга Блощаневич,1986,Raw,Yes,D
1,Yanina Yarochenko,O,59.5,,,,,,,,,85,95,-110,95,95,60,F,Яніна Яроченко,1978,Raw,Yes,D
1,Anna Chumachenko,T2,64.5,,,,,,,,,100,110,120,120,120,67.5,F,Анна Чумаченко,1995,Raw,Yes,D
1,Viktoriya Kruchok,J,74.8,,,,,,,,,135,145,150,150,150,75,F,Вікторія Кручок,1993,Raw,Yes,D
1,Olena Tereschenko,O,75,,,,,,,,,130,140,-155,140,140,75,F,Олена Терещенко,1988,Raw,Yes,D
2,Olga Demakova,O,74.7,,,,,,,,,95,105,115,115,115,75,F,Ольга Демакова,1978,Raw,Yes,D
1,Nazar Sokol,T1,59,,,,,,,,,110,120,125,125,125,60,M,Назар Сокол,1998,Raw,Yes,D
2,Oleksandr Yakovlev,T1,60,,,,,,,,,100,112.5,120,120,120,60,M,Олександр Яковлєв,1997,Raw,Yes,D
1,Aleksandr Rubanskiy,T2,58.4,,,,,,,,,-160,165,170,170,170,60,M,Олександр Рубанський,1996,Raw,Yes,D
1,Artem Kurochkin,J,59.9,,,,,,,,,160,170,-182.5,170,170,60,M,Артем Курочкін,1991,Raw,Yes,D
1,Vitaliy Litvinov,T1,62.3,,,,,,,,,165,175,180,180,180,67.5,M,Віталій Літвінов,1998,Raw,Yes,D
DQ,Mykola Davydenko,T1,64.6,,,,,,,,,-170,-170,-170,,,67.5,M,Микола Давиденко,1998,Raw,Yes,D
1,Sergiy Fastov,T2,67.4,,,,,,,,,170,190,200,200,200,67.5,M,Сергій Фастов,1994,Raw,Yes,D
2,Evgen Samoylenko,T2,65.1,,,,,,,,,165,170,175,175,175,67.5,M,Євген Самойленко,1995,Raw,Yes,D
1,Dmitro Shapoval,T1,69,,,,,,,,,160,170,180,180,180,75,M,Дмитро Шаповал,1999,Raw,Yes,D
2,Maksim Kharchenko,T1,72,,,,,,,,,100,110,115,115,115,75,M,Максим Харченко,1999,Raw,Yes,D
1,Sergiy Yamchuk,T2,73.9,,,,,,,,,220,-240,-240,220,220,75,M,Сергій Ямчук,1995,Raw,Yes,D
1,Maxym Danilov,J,73.2,,,,,,,,,190,205,-220,205,205,75,M,Максим Данілов,1991,Raw,Yes,D
1,Vitaliy Pasechnik,O,74.4,,,,,,,,,210,220,247.5,247.5,247.5,75,M,Віталій Пасечник,1985,Raw,Yes,D
2,Sergiy Martinenko,O,71.1,,,,,,,,,230,240,-245,240,240,75,M,Сергій Мартиненко,1989,Raw,Yes,D
3,Maxym Danilov,O,73.2,,,,,,,,,190,205,-220,205,205,75,M,Максим Данілов,1991,Raw,Yes,D
4,Oleksandr Avakumov,O,74.5,,,,,,,,,-140,170,185,185,185,75,M,Олександр Авакумов,1983,Raw,Yes,D
1,Vladislav Kolomiets,T1,79.9,,,,,,,,,122.5,-127.5,130,130,130,82.5,M,Владислав Коломієць,1998,Raw,Yes,D
1,Dmitro Kodenets,T2,78.5,,,,,,,,,190,210,,210,210,82.5,M,Дмитро Коденець,1995,Raw,Yes,D
2,Vadim Taranik,T2,77.5,,,,,,,,,150,160,180,180,180,82.5,M,Вадим Таранік,1995,Raw,Yes,D
1,Volodimir Rudenko,O,79.1,,,,,,,,,-220,220,245,245,245,82.5,M,Володимир Руденко,1986,Raw,Yes,D
2,Yuriy Starkov,O,82.2,,,,,,,,,170,180,185,185,185,82.5,M,Юрій Старков,1947,Raw,Yes,D
1,Oleksiy Serdyukov,T1,88.5,,,,,,,,,-150,150,,150,150,90,M,Олексій Сердюков,1998,Raw,Yes,D
1,Vadim Perev'yazko,T2,87.2,,,,,,,,,170,185,195,195,195,90,M,Вадим Перев'язко,1995,Raw,Yes,D
1,Vitaliy Visochin,J,89.9,,,,,,,,,210,222.5,230,230,230,90,M,Віталій Височин,1991,Raw,Yes,D
1,Zakhar Scherbakov,O,88.2,,,,,,,,,235,-245,245,245,245,90,M,Захар Щербаков,1987,Raw,Yes,D
2,Vadim Omelchuk,O,89.1,,,,,,,,,220,235,242.5,242.5,242.5,90,M,Вадим Омельчук,1989,Raw,Yes,D
3,Sergiy Zrazhevskyy,O,83.6,,,,,,,,,240,-250,-250,240,240,90,M,Сергій Зражевський,1990,Raw,Yes,D
1,Viktor Shulyak,M2,84,,,,,,,,,200,210,215,215,215,90,M,Віктор Шуляк,1965,Raw,Yes,D
1,Aleksandr Melenivskiy,T2,91.3,,,,,,,,,190,200,210,210,210,100,M,Олександр Меленівський,1995,Raw,Yes,D
1,Oleg Ovsyanik,J,92.7,,,,,,,,,230,245,250,250,250,100,M,Олег Овсяник,1991,Raw,Yes,D
1,Oleksandr Belan,O,99,,,,,,,,,230,-247.5,-247.5,230,230,100,M,Олександр Бєлан,1987,Raw,Yes,D
DD,Oleksandr Chernish,O,99,,,,,,,,,260,270,280,280,,100,M,Олександр Черниш,1988,Raw,Yes,D
1,Andriy Gerbut,M3,90.9,,,,,,,,,120,-150,150,150,150,100,M,Андрій Гербут,1964,Raw,Yes,D
1,Mikhaylo Anisimov,O,103.3,,,,,,,,,270,290,300,300,300,110,M,Михайло Анісімов,1985,Raw,Yes,D
2,Igor Zaychuk,O,104,,,,,,,,,220,235,-240,235,235,110,M,Ігор Зайчук,1989,Raw,Yes,D
1,Oleksandr Ponomar,O,117,,,,,,,,,230,250,267.5,267.5,267.5,125,M,Олександр Пономар,1981,Raw,Yes,D
1,Ihor Hamarnik,O,71,,,,,,,,,190,200,-210,200,200,75,M,Ігор Гамарник,1988,Raw,No,D
2,Pavlo Kyrychenko,O,73.85,,,,,,,,,160,180,200,200,200,75,M,Павло Кириченко,1983,Raw,No,D
1,Vladislav Scherbak,J,89.4,,,,,,,,,225,235,-240,235,235,90,M,Владислав Щербак,1993,Raw,No,D
1,Vladislav Scherbak,O,89.4,,,,,,,,,225,235,-240,235,235,90,M,Владислав Щербак,1993,Raw,No,D
1,Dmitro Deryabkin,J,98.2,,,,,,,,,300,-315,-315,300,300,100,M,Дмитро Дерябкін,1991,Raw,No,D
2,Bogdan Volynets,J,98.5,,,,,,,,,300,-310,-310,300,300,100,M,Богдан Волинець,1992,Raw,No,D
1,Mikhaylo Zhelyazkov,O,99.7,,,,,,,,,310,320,325,325,325,100,M,Михайло Желязков,1980,Raw,No,D
2,Evgeniy Yakovlev,O,99.8,,,,,,,,,-300,310,322.5,322.5,322.5,100,M,Евгений Яковлев,1975,Raw,No,D
3,Dmitro Deryabkin,O,98.2,,,,,,,,,300,-315,-315,300,300,100,M,Дмитро Дерябкін,1991,Raw,No,D
4,Dmitro Demakov,O,98.2,,,,,,,,,200,215,-227.5,215,215,100,M,Дмитро Демаков,1975,Raw,No,D
1,Valeriy Lytovchenko,M6,92.7,,,,,,,,,190,200,210,210,210,100,M,Валерій Литовченко,1948,Raw,No,D
1,Vadim Manzheliy,J,103.5,,,,,,,,,250,272.5,-277.5,272.5,272.5,110,M,Вадим Манжелій,1995,Raw,No,D
1,Vitaliy Alekseev,O,105.5,,,,,,,,,310,330,-342.5,330,330,110,M,Віталій Алексеєв,1988,Raw,No,D
2,Vadim Manzheliy,O,103.5,,,,,,,,,250,272.5,-277.5,272.5,272.5,110,M,Вадим Манжелій,1995,Raw,No,D
3,Ivan Badyra,O,101,,,,,,,,,245,-255,-255,245,245,110,M,Іван Бадира,1984,Raw,No,D
1,Bogdan Vorobey,O,81.8,,,,,,,,,260,275,300,300,300,82.5,M,Богдан Воробей,1983,Multi-ply,Yes,D
1,Kyrylo Ostapishin,O,87.2,,,,,,,,,270,282.5,-295,282.5,282.5,90,M,Кирило Остапішин,1985,Multi-ply,No,D
1,Dmytro Ilyashenko,O,100.4,,,,,,,,,220,-240,240,240,240,110,M,Дмитро Іль'яшенко,1984,Multi-ply,No,D
